\relax 
\providecommand\zref@newlabel[2]{}
\providecommand{\transparent@use}[1]{}
\providecommand\babel@aux[2]{}
\@nameuse{bbl@beforestart}
\catcode `"\active 
\catcode `<\active 
\catcode `>\active 
\@nameuse{es@quoting}
\providecommand\hyper@newdestlabel[2]{}
\providecommand\HyperFirstAtBeginDocument{\AtBeginDocument}
\HyperFirstAtBeginDocument{\ifx\hyper@anchor\@undefined
\global\let\oldnewlabel\newlabel
\gdef\newlabel#1#2{\newlabelxx{#1}#2}
\gdef\newlabelxx#1#2#3#4#5#6{\oldnewlabel{#1}{{#2}{#3}}}
\AtEndDocument{\ifx\hyper@anchor\@undefined
\let\newlabel\oldnewlabel
\fi}
\fi}
\global\let\hyper@last\relax 
\gdef\HyperFirstAtBeginDocument#1{#1}
\providecommand\HyField@AuxAddToFields[1]{}
\providecommand\HyField@AuxAddToCoFields[2]{}
\babel@aux{spanish}{}
\@writefile{toc}{\contentsline {section}{\numberline {1}Introducción}{3}{section.1}\protected@file@percent }
\@writefile{toc}{\contentsline {section}{\numberline {2}Análisis Exploratorio y Tratamiento de Datos}{3}{section.2}\protected@file@percent }
\@writefile{toc}{\contentsline {subsection}{\numberline {2.1}Descripción de la estructura de los datos}{3}{subsection.2.1}\protected@file@percent }
\@writefile{lol}{\contentsline {lstlisting}{\numberline {1}Muestra de los datos}{3}{lstlisting.1}\protected@file@percent }
\@writefile{toc}{\contentsline {subsection}{\numberline {2.2}Identificación de datos faltantes}{5}{subsection.2.2}\protected@file@percent }
\@writefile{lol}{\contentsline {lstlisting}{\numberline {2}Valores únicos variable CarName}{5}{lstlisting.2}\protected@file@percent }
\@writefile{toc}{\contentsline {subsection}{\numberline {2.3}Identificación de relaciones entre variables}{5}{subsection.2.3}\protected@file@percent }
\@writefile{toc}{\contentsline {subsubsection}{\numberline {2.3.1}Histograma fabricante}{5}{subsubsection.2.3.1}\protected@file@percent }
\@writefile{lof}{\contentsline {figure}{\numberline {1}{\ignorespaces Histograma Fabricantes}}{6}{figure.1}\protected@file@percent }
\@writefile{toc}{\contentsline {subsubsection}{\numberline {2.3.2}Distribución del precio}{6}{subsubsection.2.3.2}\protected@file@percent }
\@writefile{lof}{\contentsline {figure}{\numberline {2}{\ignorespaces Densidad Precio}}{6}{figure.2}\protected@file@percent }
\@writefile{toc}{\contentsline {subsubsection}{\numberline {2.3.3}Variables numéricas}{7}{subsubsection.2.3.3}\protected@file@percent }
\@writefile{lof}{\contentsline {figure}{\numberline {3}{\ignorespaces Correlación variables numéricas}}{7}{figure.3}\protected@file@percent }
\@writefile{toc}{\contentsline {subsubsection}{\numberline {2.3.4}Variables categóricas}{7}{subsubsection.2.3.4}\protected@file@percent }
\@writefile{lof}{\contentsline {figure}{\numberline {4}{\ignorespaces Boxplot variables categóricas}}{8}{figure.4}\protected@file@percent }
\@writefile{toc}{\contentsline {subsection}{\numberline {2.4}Predictores Cualitativos}{8}{subsection.2.4}\protected@file@percent }
\@writefile{toc}{\contentsline {section}{\numberline {3}Selección del Modelo}{8}{section.3}\protected@file@percent }
\@writefile{toc}{\contentsline {subsection}{\numberline {3.1}Baseline}{9}{subsection.3.1}\protected@file@percent }
\@writefile{lol}{\contentsline {lstlisting}{\numberline {3}Modelo Completo}{9}{lstlisting.3}\protected@file@percent }
\@writefile{toc}{\contentsline {subsection}{\numberline {3.2}Backward}{11}{subsection.3.2}\protected@file@percent }
\@writefile{toc}{\contentsline {subsection}{\numberline {3.3}Conjunto de Validación}{11}{subsection.3.3}\protected@file@percent }
\@writefile{lol}{\contentsline {lstlisting}{\numberline {4}Modelo Conjunto Validación Backward}{11}{lstlisting.4}\protected@file@percent }
\@writefile{lof}{\contentsline {figure}{\numberline {5}{\ignorespaces Errores Conjunto Validación Backwards}}{11}{figure.5}\protected@file@percent }
\@writefile{toc}{\contentsline {subsection}{\numberline {3.4}Validación Cruzada de $k$-grupos}{12}{subsection.3.4}\protected@file@percent }
\@writefile{lol}{\contentsline {lstlisting}{\numberline {5}Modelo Completo}{12}{lstlisting.5}\protected@file@percent }
\@writefile{lof}{\contentsline {figure}{\numberline {6}{\ignorespaces Errores Validación Cruzada Backwards}}{12}{figure.6}\protected@file@percent }
\@writefile{toc}{\contentsline {subsection}{\numberline {3.5}Forward}{13}{subsection.3.5}\protected@file@percent }
\@writefile{toc}{\contentsline {subsection}{\numberline {3.6}Conjunto de Validación}{13}{subsection.3.6}\protected@file@percent }
\@writefile{lol}{\contentsline {lstlisting}{\numberline {6}Modelo Conjunto Validación Forward}{13}{lstlisting.6}\protected@file@percent }
\@writefile{lof}{\contentsline {figure}{\numberline {7}{\ignorespaces Errores Conjunto Validación Forward}}{14}{figure.7}\protected@file@percent }
\@writefile{toc}{\contentsline {subsection}{\numberline {3.7}Validación Cruzada de $k$-grupos}{14}{subsection.3.7}\protected@file@percent }
\@writefile{lol}{\contentsline {lstlisting}{\numberline {7}Modelo Validación Cruzada Forward}{14}{lstlisting.7}\protected@file@percent }
\@writefile{lof}{\contentsline {figure}{\numberline {8}{\ignorespaces Errores Validación Cruzada Forward}}{15}{figure.8}\protected@file@percent }
\@writefile{toc}{\contentsline {subsection}{\numberline {3.8}Best Subset}{15}{subsection.3.8}\protected@file@percent }
\@writefile{toc}{\contentsline {subsection}{\numberline {3.9}Conjunto de Validación}{15}{subsection.3.9}\protected@file@percent }
\@writefile{lol}{\contentsline {lstlisting}{\numberline {8}Modelo Conjunto Validación Mejor Subconjunto}{15}{lstlisting.8}\protected@file@percent }
\@writefile{lof}{\contentsline {figure}{\numberline {9}{\ignorespaces Errores Conjunto Validación Mejor Subconjunto}}{16}{figure.9}\protected@file@percent }
\@writefile{toc}{\contentsline {subsection}{\numberline {3.10}Validación Cruzada de $k$-grupos}{16}{subsection.3.10}\protected@file@percent }
\@writefile{lol}{\contentsline {lstlisting}{\numberline {9}Modelo Validación Cruzada Mejor Subconjunto}{16}{lstlisting.9}\protected@file@percent }
\@writefile{lof}{\contentsline {figure}{\numberline {10}{\ignorespaces Errores Validación Cruzada Mejor Subconjunto}}{17}{figure.10}\protected@file@percent }
\@writefile{toc}{\contentsline {subsection}{\numberline {3.11}Resultado}{17}{subsection.3.11}\protected@file@percent }
\@writefile{toc}{\contentsline {section}{\numberline {4}Diagnóstico del Modelo}{18}{section.4}\protected@file@percent }
\@writefile{toc}{\contentsline {subsection}{\numberline {4.1}No normalidad y varianzas no constantes}{18}{subsection.4.1}\protected@file@percent }
\@writefile{lof}{\contentsline {figure}{\numberline {11}{\ignorespaces Gráficas Diagnóstico Normalidad Residudos y Homogeneidad Varianza}}{19}{figure.11}\protected@file@percent }
\@writefile{lol}{\contentsline {lstlisting}{\numberline {10}BoxCox}{19}{lstlisting.10}\protected@file@percent }
\@writefile{lof}{\contentsline {figure}{\numberline {12}{\ignorespaces Gráfica BoxCox}}{19}{figure.12}\protected@file@percent }
\@writefile{lof}{\contentsline {figure}{\numberline {13}{\ignorespaces Gráficas Diagnóstico Normalidad Residudos y Homogeneidad Varianza 2}}{20}{figure.13}\protected@file@percent }
\@writefile{toc}{\contentsline {subsection}{\numberline {4.2}Linealidad}{20}{subsection.4.2}\protected@file@percent }
\@writefile{lof}{\contentsline {figure}{\numberline {14}{\ignorespaces Gráfica Linealidad}}{20}{figure.14}\protected@file@percent }
\@writefile{toc}{\contentsline {subsection}{\numberline {4.3}Autocorrelación}{21}{subsection.4.3}\protected@file@percent }
\@writefile{lol}{\contentsline {lstlisting}{\numberline {11}Autocorrelación Durbin-Watson}{21}{lstlisting.11}\protected@file@percent }
\@writefile{toc}{\contentsline {subsection}{\numberline {4.4}Colinealidad}{21}{subsection.4.4}\protected@file@percent }
\@writefile{lol}{\contentsline {lstlisting}{\numberline {12}Colinealidad VIF}{21}{lstlisting.12}\protected@file@percent }
\@writefile{toc}{\contentsline {subsection}{\numberline {4.5}Outliers, High Leverage Values y Observaciones Influyentes}{21}{subsection.4.5}\protected@file@percent }
\@writefile{toc}{\contentsline {subsection}{\numberline {4.6}Outliers}{21}{subsection.4.6}\protected@file@percent }
\@writefile{lof}{\contentsline {figure}{\numberline {15}{\ignorespaces Outliers}}{22}{figure.15}\protected@file@percent }
\@writefile{lol}{\contentsline {lstlisting}{\numberline {13}Colinealidad VIF}{22}{lstlisting.13}\protected@file@percent }
\@writefile{toc}{\contentsline {subsection}{\numberline {4.7}High Leverage Values}{22}{subsection.4.7}\protected@file@percent }
\@writefile{lol}{\contentsline {lstlisting}{\numberline {14}High Leverage}{22}{lstlisting.14}\protected@file@percent }
\@writefile{lof}{\contentsline {figure}{\numberline {16}{\ignorespaces Hatvalues}}{22}{figure.16}\protected@file@percent }
\@writefile{toc}{\contentsline {subsection}{\numberline {4.8}Observaciones Influyentes}{23}{subsection.4.8}\protected@file@percent }
\@writefile{lof}{\contentsline {figure}{\numberline {17}{\ignorespaces InfluencePlot}}{23}{figure.17}\protected@file@percent }
\@writefile{toc}{\contentsline {section}{\numberline {5}Evaluación del Modelo}{23}{section.5}\protected@file@percent }
\@writefile{toc}{\contentsline {subsection}{\numberline {5.1}Reevaluación}{23}{subsection.5.1}\protected@file@percent }
\@writefile{lol}{\contentsline {lstlisting}{\numberline {15}High Leverage}{23}{lstlisting.15}\protected@file@percent }
\@writefile{toc}{\contentsline {subsection}{\numberline {5.2}Nuevas Observaciones}{23}{subsection.5.2}\protected@file@percent }
\@writefile{lol}{\contentsline {lstlisting}{\numberline {16}High Leverage}{23}{lstlisting.16}\protected@file@percent }
\@writefile{toc}{\contentsline {section}{\numberline {6}Conclusión}{24}{section.6}\protected@file@percent }
\@writefile{lol}{\contentsline {lstlisting}{\numberline {17}Modelo Final}{24}{lstlisting.17}\protected@file@percent }
\gdef \@abspage@last{24}
