\BOOKMARK [1][-]{section.1}{\376\377\000I\000n\000t\000r\000o\000d\000u\000c\000c\000i\000\363\000n}{}% 1
\BOOKMARK [1][-]{section.2}{\376\377\000A\000n\000\341\000l\000i\000s\000i\000s\000\040\000E\000x\000p\000l\000o\000r\000a\000t\000o\000r\000i\000o\000\040\000y\000\040\000T\000r\000a\000t\000a\000m\000i\000e\000n\000t\000o\000\040\000d\000e\000\040\000D\000a\000t\000o\000s}{}% 2
\BOOKMARK [2][-]{subsection.2.1}{\376\377\000D\000e\000s\000c\000r\000i\000p\000c\000i\000\363\000n\000\040\000d\000e\000\040\000l\000a\000\040\000e\000s\000t\000r\000u\000c\000t\000u\000r\000a\000\040\000d\000e\000\040\000l\000o\000s\000\040\000d\000a\000t\000o\000s}{section.2}% 3
\BOOKMARK [2][-]{subsection.2.2}{\376\377\000I\000d\000e\000n\000t\000i\000f\000i\000c\000a\000c\000i\000\363\000n\000\040\000d\000e\000\040\000d\000a\000t\000o\000s\000\040\000f\000a\000l\000t\000a\000n\000t\000e\000s}{section.2}% 4
\BOOKMARK [2][-]{subsection.2.3}{\376\377\000I\000d\000e\000n\000t\000i\000f\000i\000c\000a\000c\000i\000\363\000n\000\040\000d\000e\000\040\000r\000e\000l\000a\000c\000i\000o\000n\000e\000s\000\040\000e\000n\000t\000r\000e\000\040\000v\000a\000r\000i\000a\000b\000l\000e\000s}{section.2}% 5
\BOOKMARK [3][-]{subsubsection.2.3.1}{\376\377\000H\000i\000s\000t\000o\000g\000r\000a\000m\000a\000\040\000f\000a\000b\000r\000i\000c\000a\000n\000t\000e}{subsection.2.3}% 6
\BOOKMARK [3][-]{subsubsection.2.3.2}{\376\377\000D\000i\000s\000t\000r\000i\000b\000u\000c\000i\000\363\000n\000\040\000d\000e\000l\000\040\000p\000r\000e\000c\000i\000o}{subsection.2.3}% 7
\BOOKMARK [3][-]{subsubsection.2.3.3}{\376\377\000V\000a\000r\000i\000a\000b\000l\000e\000s\000\040\000n\000u\000m\000\351\000r\000i\000c\000a\000s}{subsection.2.3}% 8
\BOOKMARK [3][-]{subsubsection.2.3.4}{\376\377\000V\000a\000r\000i\000a\000b\000l\000e\000s\000\040\000c\000a\000t\000e\000g\000\363\000r\000i\000c\000a\000s}{subsection.2.3}% 9
\BOOKMARK [2][-]{subsection.2.4}{\376\377\000P\000r\000e\000d\000i\000c\000t\000o\000r\000e\000s\000\040\000C\000u\000a\000l\000i\000t\000a\000t\000i\000v\000o\000s}{section.2}% 10
\BOOKMARK [1][-]{section.3}{\376\377\000S\000e\000l\000e\000c\000c\000i\000\363\000n\000\040\000d\000e\000l\000\040\000M\000o\000d\000e\000l\000o}{}% 11
\BOOKMARK [2][-]{subsection.3.1}{\376\377\000B\000a\000s\000e\000l\000i\000n\000e}{section.3}% 12
\BOOKMARK [2][-]{subsection.3.2}{\376\377\000B\000a\000c\000k\000w\000a\000r\000d}{section.3}% 13
\BOOKMARK [2][-]{subsection.3.3}{\376\377\000C\000o\000n\000j\000u\000n\000t\000o\000\040\000d\000e\000\040\000V\000a\000l\000i\000d\000a\000c\000i\000\363\000n}{section.3}% 14
\BOOKMARK [2][-]{subsection.3.4}{\376\377\000V\000a\000l\000i\000d\000a\000c\000i\000\363\000n\000\040\000C\000r\000u\000z\000a\000d\000a\000\040\000d\000e\000\040\000k\000-\000g\000r\000u\000p\000o\000s}{section.3}% 15
\BOOKMARK [2][-]{subsection.3.5}{\376\377\000F\000o\000r\000w\000a\000r\000d}{section.3}% 16
\BOOKMARK [2][-]{subsection.3.6}{\376\377\000C\000o\000n\000j\000u\000n\000t\000o\000\040\000d\000e\000\040\000V\000a\000l\000i\000d\000a\000c\000i\000\363\000n}{section.3}% 17
\BOOKMARK [2][-]{subsection.3.7}{\376\377\000V\000a\000l\000i\000d\000a\000c\000i\000\363\000n\000\040\000C\000r\000u\000z\000a\000d\000a\000\040\000d\000e\000\040\000k\000-\000g\000r\000u\000p\000o\000s}{section.3}% 18
\BOOKMARK [2][-]{subsection.3.8}{\376\377\000B\000e\000s\000t\000\040\000S\000u\000b\000s\000e\000t}{section.3}% 19
\BOOKMARK [2][-]{subsection.3.9}{\376\377\000C\000o\000n\000j\000u\000n\000t\000o\000\040\000d\000e\000\040\000V\000a\000l\000i\000d\000a\000c\000i\000\363\000n}{section.3}% 20
\BOOKMARK [2][-]{subsection.3.10}{\376\377\000V\000a\000l\000i\000d\000a\000c\000i\000\363\000n\000\040\000C\000r\000u\000z\000a\000d\000a\000\040\000d\000e\000\040\000k\000-\000g\000r\000u\000p\000o\000s}{section.3}% 21
\BOOKMARK [2][-]{subsection.3.11}{\376\377\000R\000e\000s\000u\000l\000t\000a\000d\000o}{section.3}% 22
\BOOKMARK [1][-]{section.4}{\376\377\000D\000i\000a\000g\000n\000\363\000s\000t\000i\000c\000o\000\040\000d\000e\000l\000\040\000M\000o\000d\000e\000l\000o}{}% 23
\BOOKMARK [2][-]{subsection.4.1}{\376\377\000N\000o\000\040\000n\000o\000r\000m\000a\000l\000i\000d\000a\000d\000\040\000y\000\040\000v\000a\000r\000i\000a\000n\000z\000a\000s\000\040\000n\000o\000\040\000c\000o\000n\000s\000t\000a\000n\000t\000e\000s}{section.4}% 24
\BOOKMARK [2][-]{subsection.4.2}{\376\377\000L\000i\000n\000e\000a\000l\000i\000d\000a\000d}{section.4}% 25
\BOOKMARK [2][-]{subsection.4.3}{\376\377\000A\000u\000t\000o\000c\000o\000r\000r\000e\000l\000a\000c\000i\000\363\000n}{section.4}% 26
\BOOKMARK [2][-]{subsection.4.4}{\376\377\000C\000o\000l\000i\000n\000e\000a\000l\000i\000d\000a\000d}{section.4}% 27
\BOOKMARK [2][-]{subsection.4.5}{\376\377\000O\000u\000t\000l\000i\000e\000r\000s\000,\000\040\000H\000i\000g\000h\000\040\000L\000e\000v\000e\000r\000a\000g\000e\000\040\000V\000a\000l\000u\000e\000s\000\040\000y\000\040\000O\000b\000s\000e\000r\000v\000a\000c\000i\000o\000n\000e\000s\000\040\000I\000n\000f\000l\000u\000y\000e\000n\000t\000e\000s}{section.4}% 28
\BOOKMARK [2][-]{subsection.4.6}{\376\377\000O\000u\000t\000l\000i\000e\000r\000s}{section.4}% 29
\BOOKMARK [2][-]{subsection.4.7}{\376\377\000H\000i\000g\000h\000\040\000L\000e\000v\000e\000r\000a\000g\000e\000\040\000V\000a\000l\000u\000e\000s}{section.4}% 30
\BOOKMARK [2][-]{subsection.4.8}{\376\377\000O\000b\000s\000e\000r\000v\000a\000c\000i\000o\000n\000e\000s\000\040\000I\000n\000f\000l\000u\000y\000e\000n\000t\000e\000s}{section.4}% 31
\BOOKMARK [1][-]{section.5}{\376\377\000E\000v\000a\000l\000u\000a\000c\000i\000\363\000n\000\040\000d\000e\000l\000\040\000M\000o\000d\000e\000l\000o}{}% 32
\BOOKMARK [2][-]{subsection.5.1}{\376\377\000R\000e\000e\000v\000a\000l\000u\000a\000c\000i\000\363\000n}{section.5}% 33
\BOOKMARK [2][-]{subsection.5.2}{\376\377\000N\000u\000e\000v\000a\000s\000\040\000O\000b\000s\000e\000r\000v\000a\000c\000i\000o\000n\000e\000s}{section.5}% 34
\BOOKMARK [1][-]{section.6}{\376\377\000C\000o\000n\000c\000l\000u\000s\000i\000\363\000n}{}% 35
